v 0.000000 -1.000000 0.000000
v 0.723600 -0.447215 0.525720
v -0.276385 -0.447215 0.850640
v -0.894425 -0.447215 0.000000
v -0.276385 -0.447215 -0.850640
v 0.723600 -0.447215 -0.525720
v 0.276385 0.447215 0.850640
v -0.723600 0.447215 0.525720
v -0.723600 0.447215 -0.525720
v 0.276385 0.447215 -0.850640
v 0.894425 0.447215 -0.000000
v 0.000000 1.000000 -0.000000
v 0.425323 -0.850654 0.309011
v -0.162456 -0.850654 0.499995
v 0.262869 -0.525738 0.809012
v 0.425323 -0.850654 -0.309011
v 0.850648 -0.525736 0.000000
v -0.525730 -0.850652 0.000000
v -0.688189 -0.525736 0.499997
v -0.162456 -0.850654 -0.499995
v -0.688189 -0.525736 -0.499997
v 0.262869 -0.525738 -0.809012
v 0.951058 -0.000000 -0.309013
v 0.951058 0.000000 0.309013
v 0.587786 0.000000 0.809017
v 0.000000 0.000000 1.000000
v -0.587786 0.000000 0.809017
v -0.951058 0.000000 0.309013
v -0.951058 -0.000000 -0.309013
v -0.587786 -0.000000 -0.809017
v 0.000000 -0.000000 -1.000000
v 0.587786 -0.000000 -0.809017
v 0.688189 0.525736 0.499997
v -0.262869 0.525738 0.809012
v -0.850648 0.525736 -0.000000
v -0.262869 0.525738 -0.809012
v 0.688189 0.525736 -0.499997
v 0.525730 0.850652 -0.000000
v 0.162456 0.850654 0.499995
v -0.425323 0.850654 0.309011
v -0.425323 0.850654 -0.309011
v 0.162456 0.850654 -0.499995
vn 0.471318 -0.661687 0.583121
vn 0.187594 -0.794658 0.577345
vn -0.038547 -0.661687 0.748789
vn 0.102381 -0.943523 0.315090
vn 0.700228 -0.661687 0.268049
vn 0.607061 -0.794656 0.000000
vn 0.700228 -0.661688 -0.268049
vn 0.331305 -0.943524 0.000000
vn -0.408939 -0.661686 0.628443
vn -0.491119 -0.794657 0.356821
vn -0.724044 -0.661694 0.194735
vn -0.268034 -0.943523 0.194737
vn -0.724044 -0.661694 -0.194735
vn -0.491119 -0.794657 -0.356821
vn -0.408939 -0.661686 -0.628443
vn -0.268034 -0.943523 -0.194737
vn -0.038547 -0.661687 -0.748789
vn 0.187594 -0.794658 -0.577345
vn 0.471318 -0.661687 -0.583121
vn 0.102381 -0.943523 -0.315090
vn 0.904981 -0.330393 0.268049
vn 0.982246 -0.187599 0.000000
vn 0.992077 0.125631 -0.000000
vn 0.904981 -0.330393 -0.268049
vn 0.024726 -0.330396 0.943519
vn 0.303531 -0.187597 0.934171
vn 0.306568 0.125651 0.943519
vn 0.534590 -0.330395 0.777851
vn -0.889698 -0.330386 0.315092
vn -0.794656 -0.187595 0.577348
vn -0.802607 0.125648 0.583125
vn -0.574584 -0.330397 0.748793
vn -0.574584 -0.330397 -0.748793
vn -0.794656 -0.187595 -0.577348
vn -0.802607 0.125648 -0.583125
vn -0.889698 -0.330386 -0.315092
vn 0.534590 -0.330395 -0.777851
vn 0.303531 -0.187597 -0.934171
vn 0.306568 0.125651 -0.943519
vn 0.024726 -0.330396 -0.943519
vn 0.889698 0.330386 0.315092
vn 0.794656 0.187595 0.577348
vn 0.574584 0.330397 0.748793
vn 0.802607 -0.125648 0.583125
vn -0.024726 0.330396 0.943519
vn -0.303531 0.187597 0.934171
vn -0.534590 0.330395 0.777851
vn -0.306568 -0.125651 0.943519
vn -0.904981 0.330393 0.268049
vn -0.982246 0.187599 -0.000000
vn -0.904981 0.330393 -0.268049
vn -0.992077 -0.125631 0.000000
vn -0.534590 0.330395 -0.777851
vn -0.303531 0.187597 -0.934171
vn -0.024726 0.330396 -0.943519
vn -0.306568 -0.125651 -0.943519
vn 0.574584 0.330397 -0.748793
vn 0.794656 0.187595 -0.577348
vn 0.889698 0.330386 -0.315092
vn 0.802607 -0.125648 -0.583125
vn 0.408939 0.661686 0.628443
vn 0.491119 0.794657 0.356821
vn 0.268034 0.943523 0.194737
vn 0.724044 0.661694 0.194735
vn -0.471318 0.661687 0.583121
vn -0.187594 0.794658 0.577345
vn -0.102381 0.943523 0.315090
vn 0.038547 0.661687 0.748789
vn -0.700228 0.661687 -0.268049
vn -0.607061 0.794656 0.000000
vn -0.331305 0.943524 0.000000
vn -0.700228 0.661688 0.268049
vn 0.038547 0.661687 -0.748789
vn -0.187594 0.794658 -0.577345
vn -0.102381 0.943523 -0.315090
vn -0.471318 0.661687 -0.583121
vn 0.724044 0.661694 -0.194735
vn 0.491119 0.794657 -0.356821
vn 0.268034 0.943523 -0.194737
vn 0.408939 0.661686 -0.628443
f 15//1 13//1 2//1
f 13//2 15//2 14//2
f 3//3 14//3 15//3
f 14//4 1//4 13//4
f 17//5 2//5 13//5
f 13//6 16//6 17//6
f 6//7 17//7 16//7
f 13//8 1//8 16//8
f 19//9 14//9 3//9
f 14//10 19//10 18//10
f 4//11 18//11 19//11
f 18//12 1//12 14//12
f 21//13 18//13 4//13
f 18//14 21//14 20//14
f 5//15 20//15 21//15
f 20//16 1//16 18//16
f 22//17 20//17 5//17
f 20//18 22//18 16//18
f 6//19 16//19 22//19
f 16//20 1//20 20//20
f 24//21 2//21 17//21
f 17//22 23//22 24//22
f 11//23 24//23 23//23
f 23//24 17//24 6//24
f 26//25 3//25 15//25
f 15//26 25//26 26//26
f 7//27 26//27 25//27
f 25//28 15//28 2//28
f 28//29 4//29 19//29
f 19//30 27//30 28//30
f 8//31 28//31 27//31
f 27//32 19//32 3//32
f 30//33 5//33 21//33
f 21//34 29//34 30//34
f 9//35 30//35 29//35
f 29//36 21//36 4//36
f 32//37 6//37 22//37
f 22//38 31//38 32//38
f 10//39 32//39 31//39
f 31//40 22//40 5//40
f 33//41 24//41 11//41
f 24//42 33//42 25//42
f 7//43 25//43 33//43
f 25//44 2//44 24//44
f 34//45 26//45 7//45
f 26//46 34//46 27//46
f 8//47 27//47 34//47
f 27//48 3//48 26//48
f 35//49 28//49 8//49
f 28//50 35//50 29//50
f 9//51 29//51 35//51
f 29//52 4//52 28//52
f 36//53 30//53 9//53
f 30//54 36//54 31//54
f 10//55 31//55 36//55
f 31//56 5//56 30//56
f 37//57 32//57 10//57
f 32//58 37//58 23//58
f 11//59 23//59 37//59
f 23//60 6//60 32//60
f 39//61 7//61 33//61
f 33//62 38//62 39//62
f 12//63 39//63 38//63
f 38//64 33//64 11//64
f 40//65 8//65 34//65
f 34//66 39//66 40//66
f 12//67 40//67 39//67
f 39//68 34//68 7//68
f 41//69 9//69 35//69
f 35//70 40//70 41//70
f 12//71 41//71 40//71
f 40//72 35//72 8//72
f 42//73 10//73 36//73
f 36//74 41//74 42//74
f 12//75 42//75 41//75
f 41//76 36//76 9//76
f 38//77 11//77 37//77
f 37//78 42//78 38//78
f 12//79 38//79 42//79
f 42//80 37//80 10//80