# Blender MTL File: 'None'
# Material Count: 1
newmtl Bulle
Ka 1.000 1.000 1.000
Kd 1.000 1.000 1.000
Ks 0.000 0.000 0.000
map_Kd ..\SpongeRace\Resources\Textures\rainbowfilm_smooth.bmp
map_Ks ..\SpongeRace\Resources\Textures\uffizi_cross.dds
