# Material file for spongebob_bind.obj

newmtl spongebob
	Ns 0
	d 1
	illum 2
	Kd 0.8 0.8 0.8
	Ks 0.0 0.0 0.0
	Ka 0.2 0.2 0.2
	map_Kd ..\..\..\..\..\users\jacob\models\battle for bikini bottom\spongebob\spongebob.png

